Dropdown Input Form Group — inp_dropdown • appifyr
…
#> $fg
#> [1] "dropdown"
#> 
#> $label
#> [1] "Letters"
#> 
#> $width
#> [1] 2
#> 
#> $dots
#> list()
#> 
#> $opts
#> # A tibble: 26 x 2
#>    key   value
#>    <chr> <chr>
#>  1 A     A    
#>  2 B     B    
#>  3 C     C    
#>  4 D     D    
#>  5 E     E    
#>  6 F     F    
#>  7 G     G    
#>  8 H     H    
#>  9 I     I    
#> 10 J     J    
#> # ... with 16 more rows
…
